%YAML 1.1
%TAG !u! tag:unity3d.com,2011:
--- !u!1045 &1
EditorBuildSettings:
  m_ObjectHideFlags: 0
  serializedVersion: 2
  m_Scenes:
  - enabled: 1
    path: Assets/Scenes/TestScene1.unity
    guid: 2cda990e2423bbf4892e6590ba056729
  - enabled: 1
    path: Assets/Scenes/Level1.unity
    guid: d9a9699bda383a343a0eae559e1e6bee
  - enabled: 1
    path: Assets/Scenes/TestScene_A01.unity
    guid: 7976249d333e14e42bd87efae3fc10ec
  - enabled: 1
    path: Assets/Scenes/TestScene_A02.unity
    guid: 8b7eae3185df3bd4299de1daf771f31b
  - enabled: 1
    path: Assets/Scenes/TestScene_A03.unity
    guid: d5728574c6dd7264dbc6c7d9502be40e
  - enabled: 1
    path: Assets/Scenes/TestScene_A04.unity
    guid: 5462669d6a89bcd45b065b0c6ba75a51
  m_configObjects: {}
